{
    "key": "group_6099ac55dcf3d",
    "title": "Horario de Funcionamento",
    "fields": [
        {
            "key": "field_6099ac64df65f",
            "label": "Horário de Funcionamento",
            "name": "ht_open",
            "type": "repeater",
            "instructions": "",
            "required": 0,
            "conditional_logic": 0,
            "wrapper": {
                "width": "",
                "class": "",
                "id": ""
            },
            "collapsed": "",
            "min": 0,
            "max": 0,
            "layout": "table",
            "button_label": "",
            "sub_fields": [
                {
                    "key": "field_6099af02df662",
                    "label": "Início - Semana",
                    "name": "ht_week-b",
                    "type": "select",
                    "instructions": "Selecionar dia da semana",
                    "required": 0,
                    "conditional_logic": 0,
                    "wrapper": {
                        "width": "",
                        "class": "",
                        "id": ""
                    },
                    "choices": {
                        "segunda": "segunda",
                        "terça": "terça",
                        "quarta": "quarta",
                        "quinta": "quinta",
                        "sexta": "sexta",
                        "sabado": "sabado",
                        "domingo": "domingo"
                    },
                    "default_value": false,
                    "allow_null": 0,
                    "multiple": 0,
                    "ui": 0,
                    "return_format": "value",
                    "ajax": 0,
                    "placeholder": ""
                },
                {
                    "key": "field_6099af27df663",
                    "label": "Fim - Semana",
                    "name": "ht_week-e",
                    "type": "select",
                    "instructions": "Selecionar dia da semana",
                    "required": 0,
                    "conditional_logic": 0,
                    "wrapper": {
                        "width": "",
                        "class": "",
                        "id": ""
                    },
                    "choices": {
                        "segunda": "segunda",
                        "terça": "terça",
                        "quarta": "quarta",
                        "quinta": "quinta",
                        "sexta": "sexta",
                        "sabado": "sabado",
                        "domingo": "domingo"
                    },
                    "default_value": false,
                    "allow_null": 0,
                    "multiple": 0,
                    "ui": 0,
                    "return_format": "value",
                    "ajax": 0,
                    "placeholder": ""
                },
                {
                    "key": "field_6099b0d3df664",
                    "label": "Horário de Início",
                    "name": "ht_clock-b",
                    "type": "time_picker",
                    "instructions": "",
                    "required": 0,
                    "conditional_logic": 0,
                    "wrapper": {
                        "width": "",
                        "class": "",
                        "id": ""
                    },
                    "display_format": "H",
                    "return_format": "H"
                },
                {
                    "key": "field_6099b14ddf665",
                    "label": "Horário de Término",
                    "name": "ht_clock-e",
                    "type": "time_picker",
                    "instructions": "",
                    "required": 0,
                    "conditional_logic": 0,
                    "wrapper": {
                        "width": "",
                        "class": "",
                        "id": ""
                    },
                    "display_format": "H",
                    "return_format": "H"
                }
            ]
        }
    ],
    "location": [
        [
            {
                "param": "options_page",
                "operator": "==",
                "value": "conf_site_institucional"
            }
        ]
    ],
    "menu_order": 0,
    "position": "normal",
    "style": "default",
    "label_placement": "top",
    "instruction_placement": "label",
    "hide_on_screen": "",
    "active": true,
    "description": "",
    "modified": 1620735041
}